assessment1.knit
…
fastfood %>%
 select(sodium,cholesterol) %>%
 mutate(
  fastfood,cholesterol_sodium  = sodium + cholesterol
  ) 

## # A tibble: 515 x 19
##    sodium cholesterol  ...1 restaurant item   calories cal_fat total_fat sat_fat
##     <dbl>       <dbl> <dbl> <chr>      <chr>     <dbl>   <dbl>     <dbl>   <dbl>
##  1   1110          95     1 Mcdonalds  Artis~      380      60         7       2
##  2   1580         130     2 Mcdonalds  Singl~      840     410        45      17
##  3   1920         220     3 Mcdonalds  Doubl~     1130     600        67      27
##  4   1940         155     4 Mcdonalds  Grill~      750     280        31      10
##  5   1980         120     5 Mcdonalds  Crisp~      920     410        45      12
##  6    950          80     6 Mcdonalds  Big M~      540     250        28      10
##  7    680          40     7 Mcdonalds  Chees~      300     100        12       5
##  8   1040          65     8 Mcdonalds  Class~      510     210        24       4
##  9   1040          85     9 Mcdonalds  Doubl~      430     190        21      11
## 10   1290         175    10 Mcdonalds  Doubl~      770     400        45      21
## # ... with 505 more rows, and 10 more variables: trans_fat <dbl>,
## #   total_carb <dbl>, fiber <dbl>, sugar <dbl>, protein <dbl>, vit_a <dbl>,
## #   vit_c <dbl>, calcium <dbl>, salad <chr>, cholesterol_sodium <dbl>
…
